{"name":"realizar una peticion GET para verificar la existencia de usuarios previamente creados","id":"verificar-la-creacion-de-un-usuario-por-medio-de-la-apirest-reqrest;realizar-una-peticion-get-para-verificar-la-existencia-de-usuarios-previamente-creados","testSteps":[{"number":1,"description":"Example: {id\u003d10, email\u003dbyron.fields@reqres.in, first_name\u003dByron, last_name\u003dFields, avatar\u003dhttps://reqres.in/img/faces/10-image.jpg}","duration":555,"startTime":"2022-05-21T15:38:45.080-05:00[America/Bogota]","result":"SUCCESS","precondition":false,"level":0,"lineNumber":27,"children":[{"number":2,"description":"Dado que el usuario desea consultar la existencia de un usuario previamente creado con datos\r\n| id | email | first_name | last_name | avatar |\r\n| 10 | byron.fields@reqres.in | Byron | Fields | https://reqres.in/img/faces/10-image.jpg |","duration":0,"startTime":"2022-05-21T15:38:45.080-05:00[America/Bogota]","result":"SUCCESS","precondition":false,"level":1},{"number":3,"description":"Cuando el usuario realice una peticion de tipo GET sobre el endpoint /api/users?page\u003d2","duration":304,"startTime":"2022-05-21T15:38:45.080-05:00[America/Bogota]","result":"SUCCESS","precondition":false,"level":1,"children":[{"number":4,"description":"Alejandro get usuarios existentes","duration":282,"startTime":"2022-05-21T15:38:45.102-05:00[America/Bogota]","result":"SUCCESS","precondition":false,"level":2,"children":[{"number":5,"description":"Alejandro ejecutar get usuarios existentes","duration":282,"startTime":"2022-05-21T15:38:45.102-05:00[America/Bogota]","result":"SUCCESS","precondition":false,"level":3,"children":[{"number":6,"description":"Alejandro executes a GET on the resource /api/users?page\u003d2","duration":266,"startTime":"2022-05-21T15:38:45.118-05:00[America/Bogota]","result":"SUCCESS","precondition":false,"level":4,"children":[{"number":7,"description":"GET https://reqres.in/api/users?page\u003d2\r","duration":0,"startTime":"2022-05-21T15:38:45.384-05:00[America/Bogota]","result":"SUCCESS","restQuery":{"method":"GET","path":"https://reqres.in/api/users?page\u003d2\r","content":"\r","contentType":"null","requestHeaders":"Accept\u003d*/*\r","requestCookies":"\r","responseHeaders":"Date: Sat, 21 May 2022 20:38:45 GMT\r\nContent-Type: application/json; charset\u003dutf-8\r\nTransfer-Encoding: chunked\r\nConnection: keep-alive\r\nX-Powered-By: Express\r\nAccess-Control-Allow-Origin: *\r\nEtag: W/\"406-ut0vzoCuidvyMf8arZpMpJ6ZRDw\"\r\nVia: 1.1 vegur\r\nCache-Control: max-age\u003d14400\r\nCF-Cache-Status: HIT\r\nAge: 1179\r\nExpect-CT: max-age\u003d604800, report-uri\u003d\"https://report-uri.cloudflare.com/cdn-cgi/beacon/expect-ct\"\r\nReport-To: {\"endpoints\":[{\"url\":\"https:\\/\\/a.nel.cloudflare.com\\/report\\/v3?s\u003dR822CTZiOAJHI9YHQE5%2B5PUEWoHHNg0VIAnyGHGCA%2Bsv3k4F%2F6Upi0ZWI%2BVN7XMEZeNQL9tmj0M%2FDEUzcV0t3Iec%2BIwxaWaemtH7cT%2ByvodQa06CKhcvdEErelA%3D\"}],\"group\":\"cf-nel\",\"max_age\":604800}\r\nNEL: {\"success_fraction\":0,\"report_to\":\"cf-nel\",\"max_age\":604800}\r\nVary: Accept-Encoding\r\nServer: cloudflare\r\nCF-RAY: 70f01e133c9bc211-MDE\r\nContent-Encoding: gzip\r\nalt-svc: h3\u003d\":443\"; ma\u003d86400, h3-29\u003d\":443\"; ma\u003d86400\r","responseCookies":"\r","responseBody":"{\n    \"page\": 2,\n    \"per_page\": 6,\n    \"total\": 12,\n    \"total_pages\": 2,\n    \"data\": [\n        {\n            \"id\": 7,\n            \"email\": \"michael.lawson@reqres.in\",\n            \"first_name\": \"Michael\",\n            \"last_name\": \"Lawson\",\n            \"avatar\": \"https://reqres.in/img/faces/7-image.jpg\"\n        },\n        {\n            \"id\": 8,\n            \"email\": \"lindsay.ferguson@reqres.in\",\n            \"first_name\": \"Lindsay\",\n            \"last_name\": \"Ferguson\",\n            \"avatar\": \"https://reqres.in/img/faces/8-image.jpg\"\n        },\n        {\n            \"id\": 9,\n            \"email\": \"tobias.funke@reqres.in\",\n            \"first_name\": \"Tobias\",\n            \"last_name\": \"Funke\",\n            \"avatar\": \"https://reqres.in/img/faces/9-image.jpg\"\n        },\n        {\n            \"id\": 10,\n            \"email\": \"byron.fields@reqres.in\",\n            \"first_name\": \"Byron\",\n            \"last_name\": \"Fields\",\n            \"avatar\": \"https://reqres.in/img/faces/10-image.jpg\"\n        },\n        {\n            \"id\": 11,\n            \"email\": \"george.edwards@reqres.in\",\n            \"first_name\": \"George\",\n            \"last_name\": \"Edwards\",\n            \"avatar\": \"https://reqres.in/img/faces/11-image.jpg\"\n        },\n        {\n            \"id\": 12,\n            \"email\": \"rachel.howell@reqres.in\",\n            \"first_name\": \"Rachel\",\n            \"last_name\": \"Howell\",\n            \"avatar\": \"https://reqres.in/img/faces/12-image.jpg\"\n        }\n    ],\n    \"support\": {\n        \"url\": \"https://reqres.in/#support-heading\",\n        \"text\": \"To keep ReqRes free, contributions towards server costs are appreciated!\"\n    }\n}","statusCode":200},"precondition":false,"level":5}]}]}]}]},{"number":8,"description":"Entonces verifica la existencia de los usuarios por medio de una respuesta 200 y con la informacion inicial","duration":251,"startTime":"2022-05-21T15:38:45.384-05:00[America/Bogota]","result":"SUCCESS","precondition":false,"level":1,"children":[{"number":9,"description":"Then la respuesta del servicio fue: should be (200)","duration":0,"startTime":"2022-05-21T15:38:45.619-05:00[America/Bogota]","result":"SUCCESS","precondition":false,"level":2},{"number":10,"description":"Then la respuesta de los datos del servicio fue: should be ([10, byron.fields@reqres.in, Byron, Fields, https://reqres.in/img/faces/10-image.jpg])","duration":0,"startTime":"2022-05-21T15:38:45.619-05:00[America/Bogota]","result":"SUCCESS","precondition":false,"level":2}]}]},{"number":11,"description":"Example: {id\u003d8, email\u003dlindsay.ferguson@reqres.in, first_name\u003dLindsay, last_name\u003dFerguson, avatar\u003dhttps://reqres.in/img/faces/8-image.jpg}","duration":216,"startTime":"2022-05-21T15:38:45.635-05:00[America/Bogota]","result":"SUCCESS","precondition":false,"level":0,"lineNumber":28,"children":[{"number":12,"description":"Dado que el usuario desea consultar la existencia de un usuario previamente creado con datos\r\n| id | email | first_name | last_name | avatar |\r\n| 8 | lindsay.ferguson@reqres.in | Lindsay | Ferguson | https://reqres.in/img/faces/8-image.jpg |","duration":0,"startTime":"2022-05-21T15:38:45.635-05:00[America/Bogota]","result":"SUCCESS","precondition":false,"level":1},{"number":13,"description":"Cuando el usuario realice una peticion de tipo GET sobre el endpoint /api/users?page\u003d2","duration":201,"startTime":"2022-05-21T15:38:45.635-05:00[America/Bogota]","result":"SUCCESS","precondition":false,"level":1,"children":[{"number":14,"description":"Alejandro get usuarios existentes","duration":186,"startTime":"2022-05-21T15:38:45.650-05:00[America/Bogota]","result":"SUCCESS","precondition":false,"level":2,"children":[{"number":15,"description":"Alejandro ejecutar get usuarios existentes","duration":186,"startTime":"2022-05-21T15:38:45.650-05:00[America/Bogota]","result":"SUCCESS","precondition":false,"level":3,"children":[{"number":16,"description":"Alejandro executes a GET on the resource /api/users?page\u003d2","duration":186,"startTime":"2022-05-21T15:38:45.650-05:00[America/Bogota]","result":"SUCCESS","precondition":false,"level":4,"children":[{"number":17,"description":"GET https://reqres.in/api/users?page\u003d2\r","duration":0,"startTime":"2022-05-21T15:38:45.836-05:00[America/Bogota]","result":"SUCCESS","restQuery":{"method":"GET","path":"https://reqres.in/api/users?page\u003d2\r","content":"\r","contentType":"null","requestHeaders":"Accept\u003d*/*\r","requestCookies":"\r","responseHeaders":"Date: Sat, 21 May 2022 20:38:45 GMT\r\nContent-Type: application/json; charset\u003dutf-8\r\nTransfer-Encoding: chunked\r\nConnection: keep-alive\r\nX-Powered-By: Express\r\nAccess-Control-Allow-Origin: *\r\nEtag: W/\"406-ut0vzoCuidvyMf8arZpMpJ6ZRDw\"\r\nVia: 1.1 vegur\r\nCache-Control: max-age\u003d14400\r\nCF-Cache-Status: HIT\r\nAge: 1179\r\nExpect-CT: max-age\u003d604800, report-uri\u003d\"https://report-uri.cloudflare.com/cdn-cgi/beacon/expect-ct\"\r\nReport-To: {\"endpoints\":[{\"url\":\"https:\\/\\/a.nel.cloudflare.com\\/report\\/v3?s\u003dIkYC5fFXrkQ%2FuEY%2B%2BZo%2FolD6I%2BtxKXoIfg9dJjUR4sXFKyihagt3B34pjV9ilTqqMOPXK7vDwNGoQF2FtXoqdjdznArOBQd7tgCsDLNk%2F%2ByY587aIf9ug7q61HU%3D\"}],\"group\":\"cf-nel\",\"max_age\":604800}\r\nNEL: {\"success_fraction\":0,\"report_to\":\"cf-nel\",\"max_age\":604800}\r\nVary: Accept-Encoding\r\nServer: cloudflare\r\nCF-RAY: 70f01e1609a0f897-MDE\r\nContent-Encoding: gzip\r\nalt-svc: h3\u003d\":443\"; ma\u003d86400, h3-29\u003d\":443\"; ma\u003d86400\r","responseCookies":"\r","responseBody":"{\n    \"page\": 2,\n    \"per_page\": 6,\n    \"total\": 12,\n    \"total_pages\": 2,\n    \"data\": [\n        {\n            \"id\": 7,\n            \"email\": \"michael.lawson@reqres.in\",\n            \"first_name\": \"Michael\",\n            \"last_name\": \"Lawson\",\n            \"avatar\": \"https://reqres.in/img/faces/7-image.jpg\"\n        },\n        {\n            \"id\": 8,\n            \"email\": \"lindsay.ferguson@reqres.in\",\n            \"first_name\": \"Lindsay\",\n            \"last_name\": \"Ferguson\",\n            \"avatar\": \"https://reqres.in/img/faces/8-image.jpg\"\n        },\n        {\n            \"id\": 9,\n            \"email\": \"tobias.funke@reqres.in\",\n            \"first_name\": \"Tobias\",\n            \"last_name\": \"Funke\",\n            \"avatar\": \"https://reqres.in/img/faces/9-image.jpg\"\n        },\n        {\n            \"id\": 10,\n            \"email\": \"byron.fields@reqres.in\",\n            \"first_name\": \"Byron\",\n            \"last_name\": \"Fields\",\n            \"avatar\": \"https://reqres.in/img/faces/10-image.jpg\"\n        },\n        {\n            \"id\": 11,\n            \"email\": \"george.edwards@reqres.in\",\n            \"first_name\": \"George\",\n            \"last_name\": \"Edwards\",\n            \"avatar\": \"https://reqres.in/img/faces/11-image.jpg\"\n        },\n        {\n            \"id\": 12,\n            \"email\": \"rachel.howell@reqres.in\",\n            \"first_name\": \"Rachel\",\n            \"last_name\": \"Howell\",\n            \"avatar\": \"https://reqres.in/img/faces/12-image.jpg\"\n        }\n    ],\n    \"support\": {\n        \"url\": \"https://reqres.in/#support-heading\",\n        \"text\": \"To keep ReqRes free, contributions towards server costs are appreciated!\"\n    }\n}","statusCode":200},"precondition":false,"level":5}]}]}]}]},{"number":18,"description":"Entonces verifica la existencia de los usuarios por medio de una respuesta 200 y con la informacion inicial","duration":15,"startTime":"2022-05-21T15:38:45.836-05:00[America/Bogota]","result":"SUCCESS","precondition":false,"level":1,"children":[{"number":19,"description":"Then la respuesta del servicio fue: should be (200)","duration":0,"startTime":"2022-05-21T15:38:45.851-05:00[America/Bogota]","result":"SUCCESS","precondition":false,"level":2},{"number":20,"description":"Then la respuesta de los datos del servicio fue: should be ([8, lindsay.ferguson@reqres.in, Lindsay, Ferguson, https://reqres.in/img/faces/8-image.jpg])","duration":0,"startTime":"2022-05-21T15:38:45.851-05:00[America/Bogota]","result":"SUCCESS","precondition":false,"level":2}]}]}],"userStory":{"id":"verificar-la-creacion-de-un-usuario-por-medio-de-la-apirest-reqrest","storyName":"Verificar la creacion de un usuario por medio de la APIREST REQREST","path":"file:///D:/apirestlulobank/src/test/resources/features/apirest.feature","narrative":"  Yo como usuario de la aplicacion REQREST deseo verificar que la creacion de un usuario por medio de una\n  peticion POST funciona correctamente","type":"feature"},"featureTag":{"name":"Features/Verificar la creacion de un usuario por medio de la APIREST REQREST","type":"feature","displayName":"Features/Verificar la creacion de un usuario por medio de la APIREST REQREST"},"title":"realizar una peticion GET para verificar la existencia de usuarios previamente creados","description":"","tags":[{"name":"listadousuariosGET","type":"tag","displayName":"listadousuariosGET"},{"name":"Verificar la creacion de un usuario por medio de la APIREST REQREST","type":"feature","displayName":"Verificar la creacion de un usuario por medio de la APIREST REQREST"}],"startTime":"2022-05-21T15:38:45.080-05:00[America/Bogota]","duration":771,"projectKey":"","isManualTestingUpToDate":false,"dataTable":{"headers":["id","email","first_name","last_name","avatar"],"rows":[{"values":["10","byron.fields@reqres.in","Byron","Fields","https://reqres.in/img/faces/10-image.jpg"],"lineNumber":27,"result":"SUCCESS"},{"values":["8","lindsay.ferguson@reqres.in","Lindsay","Ferguson","https://reqres.in/img/faces/8-image.jpg"],"lineNumber":28,"result":"SUCCESS"}],"predefinedRows":true,"scenarioOutline":"Dado que el usuario desea consultar la existencia de un usuario previamente creado con datos\n\rCuando el usuario realice una peticion de tipo GET sobre el endpoint /api/users?page\u003d2\n\rEntonces verifica la existencia de los usuarios por medio de una respuesta 200 y con la informacion inicial\n\r","dataSetDescriptors":[{"startRow":0,"rowCount":0,"name":"","description":""}]},"manual":false,"testSource":"Cucumber","actors":[{"name":"Alejandro","can":["browse the web","call an API at https://reqres.in"]}],"result":"SUCCESS","scenarioOutline":"Dado que el usuario desea consultar la existencia de un usuario previamente creado con datos\r\n|id | email | first_name | last_name | avatar|\r\n|\u003cid\u003e | \u003cemail\u003e | \u003cfirst_name\u003e | \u003clast_name\u003e | \u003cavatar\u003e|\r\nCuando el usuario realice una peticion de tipo GET sobre el endpoint /api/users?page\u003d2\r\nEntonces verifica la existencia de los usuarios por medio de una respuesta 200 y con la informacion inicial"}